-------------------------------------------------------------------------------
Test set: com.libertymutual.student.spencer.programs.example01.shapes.SquareTest
-------------------------------------------------------------------------------
Tests run: 3, Failures: 0, Errors: 0, Skipped: 0, Time elapsed: 0.004 s - in com.libertymutual.student.spencer.programs.example01.shapes.SquareTest
