/Users/n0145364/Dev/Lab2/shapes_mcc/src/main/java/com/libertymutual/student/spencer/programs/example01/shapes/Square.java
/Users/n0145364/Dev/Lab2/shapes_mcc/src/main/java/com/libertymutual/student/spencer/programs/example01/shapes/Rectangle.java
/Users/n0145364/Dev/Lab2/shapes_mcc/src/main/java/com/libertymutual/student/spencer/programs/example01/shapes/Shape.java
/Users/n0145364/Dev/Lab2/shapes_mcc/src/main/java/com/libertymutual/student/spencer/programs/example01/shapes/NEW_JAVA_CLASS.java
/Users/n0145364/Dev/Lab2/shapes_mcc/src/main/java/com/libertymutual/student/spencer/programs/example01/App.java
/Users/n0145364/Dev/Lab2/shapes_mcc/src/main/java/com/libertymutual/student/spencer/programs/example01/shapes/Circle.java
